<svg xmlns="http://www.w3.org/2000/svg" fill="none" viewBox="0 0 27 27">
  <circle cx="13.5" cy="13.5" r="13.5" fill="#FA8C87"/>
  <path fill="#fff" fill-rule="evenodd" d="M12.4159 13.83L5.29297 6.70712l1.41421-1.41421L15.2443 13.83l-8.53712 8.5371-1.41421-1.4142L12.4159 13.83z" clip-rule="evenodd"/>
  <path fill="#fff" fill-rule="evenodd" d="M15.2835 13.83l7.1229-7.12288-1.4142-1.41421L12.4551 13.83l8.5371 8.5371 1.4142-1.4142-7.1229-7.1229z" clip-rule="evenodd"/>
</svg>